Biostat 203B Homework 5
…
Engine-Specific Arguments:
  standardize = FALSE

Computational engine: glmnet 

param_grid <- grid_regular(
  penalty(range = c(-6, 3)), 
  mixture(),
  levels = c(5, 5)
  ) |>
  print()

# A tibble: 25 × 2
       penalty mixture
         <dbl>   <dbl>
 1    0.000001    0   
 2    0.000178    0   
 3    0.0316      0   
 4    5.62        0   
 5 1000           0   
 6    0.000001    0.25
 7    0.000178    0.25
 8    0.0316      0.25
 9    5.62        0.25
10 1000           0.25
# ℹ 15 more rows
…
Visualize CV results:

logit_fit |>
  # aggregate metrics from K folds
  collect_metrics() |>
  print(width = Inf) |>
  filter(.metric == "roc_auc") |>
  ggplot(mapping = aes(x = penalty, y = mean, color = factor(mixture))) +
  geom_point() +
  labs(x = "Penalty", y = "CV AUC") +
  scale_x_log10()

# A tibble: 50 × 8
       penalty mixture .metric  .estimator  mean     n std_err
         <dbl>   <dbl> <chr>    <chr>      <dbl> <int>   <dbl>
 1    0.000001       0 accuracy binary     0.577     5 0.00222
 2    0.000001       0 roc_auc  binary     0.607     5 0.00124
 3    0.000178       0 accuracy binary     0.577     5 0.00222
 4    0.000178       0 roc_auc  binary     0.607     5 0.00124
 5    0.0316         0 accuracy binary     0.576     5 0.00234
 6    0.0316         0 roc_auc  binary     0.607     5 0.00107
 7    5.62           0 accuracy binary     0.527     5 0.00394
 8    5.62           0 roc_auc  binary     0.596     5 0.00144
 9 1000              0 accuracy binary     0.509     5 0.00164
10 1000              0 roc_auc  binary     0.5       5 0      
   .config              
   <chr>                
 1 Preprocessor1_Model01
 2 Preprocessor1_Model01
 3 Preprocessor1_Model02
 4 Preprocessor1_Model02
 5 Preprocessor1_Model03
 6 Preprocessor1_Model03
 7 Preprocessor1_Model04
 8 Preprocessor1_Model04
 9 Preprocessor1_Model05
10 Preprocessor1_Model05
# ℹ 40 more rows
…
Engine-Specific Arguments:
  importance = impurity

Computational engine: ranger 

param_grid <- grid_regular(
  trees(range = c(100L, 500L)), 
  mtry(range = c(1L, 5L)),
  levels = c(5, 5)
  )
param_grid

# A tibble: 25 × 2
   trees  mtry
   <int> <int>
 1   100     1
 2   200     1
 3   300     1
 4   400     1
 5   500     1
 6   100     2
 7   200     2
 8   300     2
 9   400     2
10   500     2
# ℹ 15 more rows
…
Visualize CV results:

rf_fit |>
  collect_metrics() |>
  print(width = Inf) |>
  filter(.metric == "roc_auc") |>
  ggplot(mapping = aes(x = trees, y = mean, color = factor(mtry))) +
  geom_point() + 
  # geom_line() + 
  labs(x = "Num. of Trees", y = "CV AUC")

# A tibble: 50 × 8
    mtry trees .metric  .estimator  mean     n  std_err .config              
   <int> <int> <chr>    <chr>      <dbl> <int>    <dbl> <chr>                
 1     1   100 accuracy binary     0.596     5 0.00215  Preprocessor1_Model01
 2     1   100 roc_auc  binary     0.633     5 0.00215  Preprocessor1_Model01
 3     1   200 accuracy binary     0.598     5 0.000884 Preprocessor1_Model02
 4     1   200 roc_auc  binary     0.639     5 0.00155  Preprocessor1_Model02
 5     1   300 accuracy binary     0.599     5 0.00331  Preprocessor1_Model03
 6     1   300 roc_auc  binary     0.640     5 0.00312  Preprocessor1_Model03
 7     1   400 accuracy binary     0.600     5 0.00275  Preprocessor1_Model04
 8     1   400 roc_auc  binary     0.641     5 0.00252  Preprocessor1_Model04
 9     1   500 accuracy binary     0.600     5 0.00161  Preprocessor1_Model05
10     1   500 roc_auc  binary     0.642     5 0.00225  Preprocessor1_Model05
# ℹ 40 more rows
…
Main Arguments:
  trees = 500
  tree_depth = tune()
  learn_rate = tune()

Computational engine: xgboost 

param_grid <- grid_regular(
  tree_depth(range = c(3L, 10L)),
  learn_rate(range = c(-3, 2), trans = log10_trans()),
  levels = c(3, 10)
  )
param_grid

# A tibble: 30 × 2
   tree_depth learn_rate
        <int>      <dbl>
 1          3    0.001  
 2          6    0.001  
 3         10    0.001  
 4          3    0.00359
 5          6    0.00359
 6         10    0.00359
 7          3    0.0129 
 8          6    0.0129 
 9         10    0.0129 
10          3    0.0464 
# ℹ 20 more rows
…
Visualize CV results:

gb_fit |>
  collect_metrics() |>
  print(width = Inf) |>
  filter(.metric == "roc_auc") |>
  ggplot(mapping = aes(x = learn_rate, y = mean, color = factor(tree_depth))) +
  geom_point() +
  labs(x = "Learning Rate", y = "CV AUC") +
  scale_x_log10()

# A tibble: 60 × 8
   tree_depth learn_rate .metric  .estimator  mean     n std_err
        <int>      <dbl> <chr>    <chr>      <dbl> <int>   <dbl>
 1          3    0.001   accuracy binary     0.571     5 0.00294
 2          3    0.001   roc_auc  binary     0.601     5 0.00282
 3          6    0.001   accuracy binary     0.582     5 0.00255
 4          6    0.001   roc_auc  binary     0.617     5 0.00358
 5         10    0.001   accuracy binary     0.586     5 0.00293
 6         10    0.001   roc_auc  binary     0.623     5 0.00364
 7          3    0.00359 accuracy binary     0.582     5 0.00126
 8          3    0.00359 roc_auc  binary     0.619     5 0.00229
 9          6    0.00359 accuracy binary     0.593     5 0.00312
10          6    0.00359 roc_auc  binary     0.634     5 0.00237
   .config              
   <chr>                
 1 Preprocessor1_Model01
 2 Preprocessor1_Model01
 3 Preprocessor1_Model02
 4 Preprocessor1_Model02
 5 Preprocessor1_Model03
 6 Preprocessor1_Model03
 7 Preprocessor1_Model04
 8 Preprocessor1_Model04
 9 Preprocessor1_Model05
10 Preprocessor1_Model05
# ℹ 50 more rows
…
pred <-
  test_data |>
  select(los_long) |>
  bind_cols(
    predict(
      mimic_model_st,
      test_data,
      type = "class",
      members = TRUE
      )
    ) |>
  print(width = Inf)

# A tibble: 47,223 × 10
   los_long .pred_class .pred_class_rf_res_1_06 .pred_class_rf_res_1_07
   <fct>    <fct>       <fct>                   <fct>                  
 1 FALSE    TRUE        TRUE                    TRUE                   
 2 FALSE    FALSE       FALSE                   FALSE                  
 3 FALSE    FALSE       FALSE                   FALSE                  
 4 TRUE     TRUE        TRUE                    TRUE                   
 5 FALSE    TRUE        TRUE                    TRUE                   
 6 TRUE     FALSE       TRUE                    FALSE                  
 7 TRUE     FALSE       FALSE                   TRUE                   
 8 TRUE     TRUE        TRUE                    TRUE                   
 9 TRUE     TRUE        TRUE                    TRUE                   
10 FALSE    TRUE        TRUE                    TRUE                   
   .pred_class_rf_res_1_08 .pred_class_rf_res_1_10 .pred_class_gb_res_1_03
   <fct>                   <fct>                   <fct>                  
 1 TRUE                    TRUE                    TRUE                   
 2 FALSE                   FALSE                   FALSE                  
 3 FALSE                   FALSE                   FALSE                  
 4 TRUE                    TRUE                    TRUE                   
 5 TRUE                    TRUE                    TRUE                   
 6 TRUE                    TRUE                    TRUE                   
 7 FALSE                   FALSE                   TRUE                   
 8 TRUE                    TRUE                    TRUE                   
 9 TRUE                    TRUE                    TRUE                   
10 TRUE                    FALSE                   TRUE                   
   .pred_class_gb_res_1_05 .pred_class_gb_res_1_04 .pred_class_gb_res_1_06
   <fct>                   <fct>                   <fct>                  
 1 TRUE                    TRUE                    TRUE                   
 2 FALSE                   FALSE                   FALSE                  
 3 FALSE                   FALSE                   TRUE                   
 4 TRUE                    TRUE                    TRUE                   
 5 FALSE                   FALSE                   TRUE                   
 6 FALSE                   TRUE                    FALSE                  
 7 FALSE                   FALSE                   FALSE                  
 8 TRUE                    TRUE                    TRUE                   
 9 TRUE                    TRUE                    FALSE                  
10 TRUE                    TRUE                    TRUE                   
# ℹ 47,213 more rows
…
